%!PS-Adobe-3.0 EPSF-3.0
%%Creator: (MATLAB, The Mathworks, Inc. Version 8.5.0.173394 \(R2015a\). Operating System: Mac OS X)
%%Title: /Users/himanshu/Documents/plot_files/homo_yield.eps
%%CreationDate: 2015-10-01T15:43:46
%%Pages: (atend)
%%BoundingBox: 0 0 560 420
%%LanguageLevel: 2
%%EndComments
%%BeginProlog
%%BeginResource: procset (Apache XML Graphics Std ProcSet) 1.2 0
%%Version: 1.2 0
%%Copyright: (Copyright 2001-2003,2010 The Apache Software Foundation. License terms: http://www.apache.org/licenses/LICENSE-2.0)
/bd{bind def}bind def
/ld{load def}bd
/GR/grestore ld
/M/moveto ld
/LJ/setlinejoin ld
/C/curveto ld
/f/fill ld
/LW/setlinewidth ld
/GC/setgray ld
/t/show ld
/N/newpath ld
/CT/concat ld
/cp/closepath ld
/S/stroke ld
/L/lineto ld
/CC/setcmykcolor ld
/A/ashow ld
/GS/gsave ld
/RC/setrgbcolor ld
/RM/rmoveto ld
/ML/setmiterlimit ld
/re {4 2 roll M
1 index 0 rlineto
0 exch rlineto
neg 0 rlineto
cp } bd
/_ctm matrix def
/_tm matrix def
/BT { _ctm currentmatrix pop matrix _tm copy pop 0 0 moveto } bd
/ET { _ctm setmatrix } bd
/iTm { _ctm setmatrix _tm concat } bd
/Tm { _tm astore pop iTm 0 0 moveto } bd
/ux 0.0 def
/uy 0.0 def
/F {
  /Tp exch def
  /Tf exch def
  Tf findfont Tp scalefont setfont
  /cf Tf def  /cs Tp def
} bd
/ULS {currentpoint /uy exch def /ux exch def} bd
/ULE {
  /Tcx currentpoint pop def
  gsave
  newpath
  cf findfont cs scalefont dup
  /FontMatrix get 0 get /Ts exch def /FontInfo get dup
  /UnderlinePosition get Ts mul /To exch def
  /UnderlineThickness get Ts mul /Tt exch def
  ux uy To add moveto  Tcx uy To add lineto
  Tt setlinewidth stroke
  grestore
} bd
/OLE {
  /Tcx currentpoint pop def
  gsave
  newpath
  cf findfont cs scalefont dup
  /FontMatrix get 0 get /Ts exch def /FontInfo get dup
  /UnderlinePosition get Ts mul /To exch def
  /UnderlineThickness get Ts mul /Tt exch def
  ux uy To add cs add moveto Tcx uy To add cs add lineto
  Tt setlinewidth stroke
  grestore
} bd
/SOE {
  /Tcx currentpoint pop def
  gsave
  newpath
  cf findfont cs scalefont dup
  /FontMatrix get 0 get /Ts exch def /FontInfo get dup
  /UnderlinePosition get Ts mul /To exch def
  /UnderlineThickness get Ts mul /Tt exch def
  ux uy To add cs 10 mul 26 idiv add moveto Tcx uy To add cs 10 mul 26 idiv add lineto
  Tt setlinewidth stroke
  grestore
} bd
/QT {
/Y22 exch store
/X22 exch store
/Y21 exch store
/X21 exch store
currentpoint
/Y21 load 2 mul add 3 div exch
/X21 load 2 mul add 3 div exch
/X21 load 2 mul /X22 load add 3 div
/Y21 load 2 mul /Y22 load add 3 div
/X22 load /Y22 load curveto
} bd
/SSPD {
dup length /d exch dict def
{
/v exch def
/k exch def
currentpagedevice k known {
/cpdv currentpagedevice k get def
v cpdv ne {
/upd false def
/nullv v type /nulltype eq def
/nullcpdv cpdv type /nulltype eq def
nullv nullcpdv or
{
/upd true def
} {
/sametype v type cpdv type eq def
sametype {
v type /arraytype eq {
/vlen v length def
/cpdvlen cpdv length def
vlen cpdvlen eq {
0 1 vlen 1 sub {
/i exch def
/obj v i get def
/cpdobj cpdv i get def
obj cpdobj ne {
/upd true def
exit
} if
} for
} {
/upd true def
} ifelse
} {
v type /dicttype eq {
v {
/dv exch def
/dk exch def
/cpddv cpdv dk get def
dv cpddv ne {
/upd true def
exit
} if
} forall
} {
/upd true def
} ifelse
} ifelse
} if
} ifelse
upd true eq {
d k v put
} if
} if
} if
} forall
d length 0 gt {
d setpagedevice
} if
} bd
%%EndResource
%%BeginResource: procset (Apache XML Graphics EPS ProcSet) 1.0 0
%%Version: 1.0 0
%%Copyright: (Copyright 2002-2003 The Apache Software Foundation. License terms: http://www.apache.org/licenses/LICENSE-2.0)
/BeginEPSF { %def
/b4_Inc_state save def         % Save state for cleanup
/dict_count countdictstack def % Count objects on dict stack
/op_count count 1 sub def      % Count objects on operand stack
userdict begin                 % Push userdict on dict stack
/showpage { } def              % Redefine showpage, { } = null proc
0 setgray 0 setlinecap         % Prepare graphics state
1 setlinewidth 0 setlinejoin
10 setmiterlimit [ ] 0 setdash newpath
/languagelevel where           % If level not equal to 1 then
{pop languagelevel             % set strokeadjust and
1 ne                           % overprint to their defaults.
{false setstrokeadjust false setoverprint
} if
} if
} bd
/EndEPSF { %def
count op_count sub {pop} repeat            % Clean up stacks
countdictstack dict_count sub {end} repeat
b4_Inc_state restore
} bd
%%EndResource
%FOPBeginFontDict
%%IncludeResource: font Courier-Bold
%%IncludeResource: font Helvetica
%%IncludeResource: font Courier-BoldOblique
%%IncludeResource: font Courier-Oblique
%%IncludeResource: font Times-Roman
%%IncludeResource: font Helvetica-BoldOblique
%%IncludeResource: font Helvetica-Bold
%%IncludeResource: font Helvetica-Oblique
%%IncludeResource: font Times-BoldItalic
%%IncludeResource: font Courier
%%IncludeResource: font Times-Italic
%%IncludeResource: font Times-Bold
%%IncludeResource: font Symbol
%%IncludeResource: font ZapfDingbats
%FOPEndFontDict
%%BeginResource: encoding WinAnsiEncoding
/WinAnsiEncoding [
/.notdef /.notdef /.notdef /.notdef /.notdef
/.notdef /.notdef /.notdef /.notdef /.notdef
/.notdef /.notdef /.notdef /.notdef /.notdef
/.notdef /.notdef /.notdef /.notdef /.notdef
/.notdef /.notdef /.notdef /.notdef /.notdef
/.notdef /.notdef /.notdef /.notdef /.notdef
/.notdef /.notdef /space /exclam /quotedbl
/numbersign /dollar /percent /ampersand /quotesingle
/parenleft /parenright /asterisk /plus /comma
/hyphen /period /slash /zero /one
/two /three /four /five /six
/seven /eight /nine /colon /semicolon
/less /equal /greater /question /at
/A /B /C /D /E
/F /G /H /I /J
/K /L /M /N /O
/P /Q /R /S /T
/U /V /W /X /Y
/Z /bracketleft /backslash /bracketright /asciicircum
/underscore /quoteleft /a /b /c
/d /e /f /g /h
/i /j /k /l /m
/n /o /p /q /r
/s /t /u /v /w
/x /y /z /braceleft /bar
/braceright /asciitilde /bullet /Euro /bullet
/quotesinglbase /florin /quotedblbase /ellipsis /dagger
/daggerdbl /circumflex /perthousand /Scaron /guilsinglleft
/OE /bullet /Zcaron /bullet /bullet
/quoteleft /quoteright /quotedblleft /quotedblright /bullet
/endash /emdash /asciitilde /trademark /scaron
/guilsinglright /oe /bullet /zcaron /Ydieresis
/space /exclamdown /cent /sterling /currency
/yen /brokenbar /section /dieresis /copyright
/ordfeminine /guillemotleft /logicalnot /sfthyphen /registered
/macron /degree /plusminus /twosuperior /threesuperior
/acute /mu /paragraph /middot /cedilla
/onesuperior /ordmasculine /guillemotright /onequarter /onehalf
/threequarters /questiondown /Agrave /Aacute /Acircumflex
/Atilde /Adieresis /Aring /AE /Ccedilla
/Egrave /Eacute /Ecircumflex /Edieresis /Igrave
/Iacute /Icircumflex /Idieresis /Eth /Ntilde
/Ograve /Oacute /Ocircumflex /Otilde /Odieresis
/multiply /Oslash /Ugrave /Uacute /Ucircumflex
/Udieresis /Yacute /Thorn /germandbls /agrave
/aacute /acircumflex /atilde /adieresis /aring
/ae /ccedilla /egrave /eacute /ecircumflex
/edieresis /igrave /iacute /icircumflex /idieresis
/eth /ntilde /ograve /oacute /ocircumflex
/otilde /odieresis /divide /oslash /ugrave
/uacute /ucircumflex /udieresis /yacute /thorn
/ydieresis
] def
%%EndResource
%FOPBeginFontReencode
/Courier-Bold findfont
dup length dict begin
  {1 index /FID ne {def} {pop pop} ifelse} forall
  /Encoding WinAnsiEncoding def
  currentdict
end
/Courier-Bold exch definefont pop
/Helvetica findfont
dup length dict begin
  {1 index /FID ne {def} {pop pop} ifelse} forall
  /Encoding WinAnsiEncoding def
  currentdict
end
/Helvetica exch definefont pop
/Courier-BoldOblique findfont
dup length dict begin
  {1 index /FID ne {def} {pop pop} ifelse} forall
  /Encoding WinAnsiEncoding def
  currentdict
end
/Courier-BoldOblique exch definefont pop
/Courier-Oblique findfont
dup length dict begin
  {1 index /FID ne {def} {pop pop} ifelse} forall
  /Encoding WinAnsiEncoding def
  currentdict
end
/Courier-Oblique exch definefont pop
/Times-Roman findfont
dup length dict begin
  {1 index /FID ne {def} {pop pop} ifelse} forall
  /Encoding WinAnsiEncoding def
  currentdict
end
/Times-Roman exch definefont pop
/Helvetica-BoldOblique findfont
dup length dict begin
  {1 index /FID ne {def} {pop pop} ifelse} forall
  /Encoding WinAnsiEncoding def
  currentdict
end
/Helvetica-BoldOblique exch definefont pop
/Helvetica-Bold findfont
dup length dict begin
  {1 index /FID ne {def} {pop pop} ifelse} forall
  /Encoding WinAnsiEncoding def
  currentdict
end
/Helvetica-Bold exch definefont pop
/Helvetica-Oblique findfont
dup length dict begin
  {1 index /FID ne {def} {pop pop} ifelse} forall
  /Encoding WinAnsiEncoding def
  currentdict
end
/Helvetica-Oblique exch definefont pop
/Times-BoldItalic findfont
dup length dict begin
  {1 index /FID ne {def} {pop pop} ifelse} forall
  /Encoding WinAnsiEncoding def
  currentdict
end
/Times-BoldItalic exch definefont pop
/Courier findfont
dup length dict begin
  {1 index /FID ne {def} {pop pop} ifelse} forall
  /Encoding WinAnsiEncoding def
  currentdict
end
/Courier exch definefont pop
/Times-Italic findfont
dup length dict begin
  {1 index /FID ne {def} {pop pop} ifelse} forall
  /Encoding WinAnsiEncoding def
  currentdict
end
/Times-Italic exch definefont pop
/Times-Bold findfont
dup length dict begin
  {1 index /FID ne {def} {pop pop} ifelse} forall
  /Encoding WinAnsiEncoding def
  currentdict
end
/Times-Bold exch definefont pop
%FOPEndFontReencode
%%EndProlog
%%Page: 1 1
%%PageBoundingBox: 0 0 560 420
%%BeginPageSetup
[1 0 0 -1 0 420] CT
%%EndPageSetup
GS
1 GC
N
0 0 560 420 re
f
GR
GS
1 GC
N
0 0 560 420 re
f
GR
GS
1 GC
N
77 374 M
507 374 L
507 31 L
77 31 L
cp
f
GR
GS
0.149 GC
2 setlinecap
10.0 ML
N
77 374 M
507 374 L
S
GR
GS
0.149 GC
2 setlinecap
10.0 ML
N
77 31 M
507 31 L
S
GR
GS
0.149 GC
2 setlinecap
10.0 ML
N
148.667 374 M
148.667 369.7 L
S
GR
GS
0.149 GC
2 setlinecap
10.0 ML
N
220.333 374 M
220.333 369.7 L
S
GR
GS
0.149 GC
2 setlinecap
10.0 ML
N
292 374 M
292 369.7 L
S
GR
GS
0.149 GC
2 setlinecap
10.0 ML
N
363.667 374 M
363.667 369.7 L
S
GR
GS
0.149 GC
2 setlinecap
10.0 ML
N
435.333 374 M
435.333 369.7 L
S
GR
GS
0.149 GC
2 setlinecap
10.0 ML
N
148.667 31 M
148.667 35.3 L
S
GR
GS
0.149 GC
2 setlinecap
10.0 ML
N
220.333 31 M
220.333 35.3 L
S
GR
GS
0.149 GC
2 setlinecap
10.0 ML
N
292 31 M
292 35.3 L
S
GR
GS
0.149 GC
2 setlinecap
10.0 ML
N
363.667 31 M
363.667 35.3 L
S
GR
GS
0.149 GC
2 setlinecap
10.0 ML
N
435.333 31 M
435.333 35.3 L
S
GR
GS
[1 0 0 1 148.66667 380.39999] CT
0.149 GC
/Helvetica 22 F
GS
[1 0 0 1 0 0] CT
-22.5 17 moveto 
1 -1 scale
(CH4) t 
GR
GR
GS
[1 0 0 1 220.33333 380.39999] CT
0.149 GC
/Helvetica 22 F
GS
[1 0 0 1 0 0] CT
-23 17 moveto 
1 -1 scale
(H2O) t 
GR
GR
GS
[1 0 0 1 292 380.39999] CT
0.149 GC
/Helvetica 22 F
GS
[1 0 0 1 0 0] CT
-16.5 17 moveto 
1 -1 scale
(CO) t 
GR
GR
GS
[1 0 0 1 363.66666 380.39999] CT
0.149 GC
/Helvetica 22 F
GS
[1 0 0 1 0 0] CT
-23 17 moveto 
1 -1 scale
(CO2) t 
GR
GR
GS
[1 0 0 1 435.33334 380.39999] CT
0.149 GC
/Helvetica 22 F
GS
[1 0 0 1 0 0] CT
-22.5 17 moveto 
1 -1 scale
(LVG) t 
GR
GR
GS
[0 -1 1 0 24.6 202.49983] CT
0.149 GC
/Helvetica 24 F
GS
[1 0 0 1 0 0] CT
-113.5 -6 moveto 
1 -1 scale
(Product species yield) t 
GR
GR
GS
0.149 GC
2 setlinecap
10.0 ML
N
77 374 M
77 31 L
S
GR
GS
0.149 GC
2 setlinecap
10.0 ML
N
507 374 M
507 31 L
S
GR
GS
0.149 GC
2 setlinecap
10.0 ML
N
77 374 M
81.3 374 L
S
GR
GS
0.149 GC
2 setlinecap
10.0 ML
N
77 325 M
81.3 325 L
S
GR
GS
0.149 GC
2 setlinecap
10.0 ML
N
77 276 M
81.3 276 L
S
GR
GS
0.149 GC
2 setlinecap
10.0 ML
N
77 227 M
81.3 227 L
S
GR
GS
0.149 GC
2 setlinecap
10.0 ML
N
77 178 M
81.3 178 L
S
GR
GS
0.149 GC
2 setlinecap
10.0 ML
N
77 129 M
81.3 129 L
S
GR
GS
0.149 GC
2 setlinecap
10.0 ML
N
77 80 M
81.3 80 L
S
GR
GS
0.149 GC
2 setlinecap
10.0 ML
N
77 31 M
81.3 31 L
S
GR
GS
0.149 GC
2 setlinecap
10.0 ML
N
507 374 M
502.7 374 L
S
GR
GS
0.149 GC
2 setlinecap
10.0 ML
N
507 325 M
502.7 325 L
S
GR
GS
0.149 GC
2 setlinecap
10.0 ML
N
507 276 M
502.7 276 L
S
GR
GS
0.149 GC
2 setlinecap
10.0 ML
N
507 227 M
502.7 227 L
S
GR
GS
0.149 GC
2 setlinecap
10.0 ML
N
507 178 M
502.7 178 L
S
GR
GS
0.149 GC
2 setlinecap
10.0 ML
N
507 129 M
502.7 129 L
S
GR
GS
0.149 GC
2 setlinecap
10.0 ML
N
507 80 M
502.7 80 L
S
GR
GS
0.149 GC
2 setlinecap
10.0 ML
N
507 31 M
502.7 31 L
S
GR
GS
[1 0 0 1 70.6 374] CT
0.149 GC
/Helvetica 22 F
GS
[1 0 0 1 0 0] CT
-13 5.5 moveto 
1 -1 scale
(0) t 
GR
GR
GS
[1 0 0 1 70.6 325] CT
0.149 GC
/Helvetica 22 F
GS
[1 0 0 1 0 0] CT
-43 5.5 moveto 
1 -1 scale
(0.02) t 
GR
GR
GS
[1 0 0 1 70.6 276] CT
0.149 GC
/Helvetica 22 F
GS
[1 0 0 1 0 0] CT
-43 5.5 moveto 
1 -1 scale
(0.04) t 
GR
GR
GS
[1 0 0 1 70.6 227] CT
0.149 GC
/Helvetica 22 F
GS
[1 0 0 1 0 0] CT
-43 5.5 moveto 
1 -1 scale
(0.06) t 
GR
GR
GS
[1 0 0 1 70.6 178] CT
0.149 GC
/Helvetica 22 F
GS
[1 0 0 1 0 0] CT
-43 5.5 moveto 
1 -1 scale
(0.08) t 
GR
GR
GS
[1 0 0 1 70.6 129] CT
0.149 GC
/Helvetica 22 F
GS
[1 0 0 1 0 0] CT
-31 5.5 moveto 
1 -1 scale
(0.1) t 
GR
GR
GS
[1 0 0 1 70.6 80.00001] CT
0.149 GC
/Helvetica 22 F
GS
[1 0 0 1 0 0] CT
-43 5.5 moveto 
1 -1 scale
(0.12) t 
GR
GR
GS
[1 0 0 1 70.6 31] CT
0.149 GC
/Helvetica 22 F
GS
[1 0 0 1 0 0] CT
-43 5.5 moveto 
1 -1 scale
(0.14) t 
GR
GR
GS
0.208 0.165 0.525 RC
N
130.238 374 M
130.238 357.82 L
146.619 357.82 L
146.619 374 L
cp
f
GR
GS
0.208 0.165 0.525 RC
N
201.905 374 M
201.905 232.546 L
218.286 232.546 L
218.286 374 L
cp
f
GR
GS
0.208 0.165 0.525 RC
N
273.571 374 M
273.571 176.85 L
289.952 176.85 L
289.952 374 L
cp
f
GR
GS
0.208 0.165 0.525 RC
N
345.238 374 M
345.238 172.827 L
361.619 172.827 L
361.619 374 L
cp
f
GR
GS
0.208 0.165 0.525 RC
N
416.905 374 M
416.905 44.909 L
433.286 44.909 L
433.286 374 L
cp
f
GR
GS
2 setlinecap
10.0 ML
N
130.238 374 M
130.238 357.82 L
146.619 357.82 L
146.619 374 L
130.238 374 L
S
GR
GS
2 setlinecap
10.0 ML
N
201.905 374 M
201.905 232.546 L
218.286 232.546 L
218.286 374 L
201.905 374 L
S
GR
GS
2 setlinecap
10.0 ML
N
273.571 374 M
273.571 176.85 L
289.952 176.85 L
289.952 374 L
273.571 374 L
S
GR
GS
2 setlinecap
10.0 ML
N
345.238 374 M
345.238 172.827 L
361.619 172.827 L
361.619 374 L
345.238 374 L
S
GR
GS
2 setlinecap
10.0 ML
N
416.905 374 M
416.905 44.909 L
433.286 44.909 L
433.286 374 L
416.905 374 L
S
GR
GS
0.973 0.98 0.051 RC
N
150.714 374 M
150.714 356.771 L
167.095 356.771 L
167.095 374 L
cp
f
GR
GS
0.973 0.98 0.051 RC
N
222.381 374 M
222.381 231.122 L
238.762 231.122 L
238.762 374 L
cp
f
GR
GS
0.973 0.98 0.051 RC
N
294.048 374 M
294.048 172.168 L
310.429 172.168 L
310.429 374 L
cp
f
GR
GS
0.973 0.98 0.051 RC
N
365.714 374 M
365.714 170.189 L
382.095 170.189 L
382.095 374 L
cp
f
GR
GS
0.973 0.98 0.051 RC
N
437.381 374 M
437.381 49.564 L
453.762 49.564 L
453.762 374 L
cp
f
GR
GS
2 setlinecap
10.0 ML
N
150.714 374 M
150.714 356.771 L
167.095 356.771 L
167.095 374 L
150.714 374 L
S
GR
GS
2 setlinecap
10.0 ML
N
222.381 374 M
222.381 231.122 L
238.762 231.122 L
238.762 374 L
222.381 374 L
S
GR
GS
2 setlinecap
10.0 ML
N
294.048 374 M
294.048 172.168 L
310.429 172.168 L
310.429 374 L
294.048 374 L
S
GR
GS
2 setlinecap
10.0 ML
N
365.714 374 M
365.714 170.189 L
382.095 170.189 L
382.095 374 L
365.714 374 L
S
GR
GS
2 setlinecap
10.0 ML
N
437.381 374 M
437.381 49.564 L
453.762 49.564 L
453.762 374 L
437.381 374 L
S
GR
GS
0.149 GC
2 setlinecap
10.0 ML
N
77 374 M
507 374 L
S
GR
GS
1 GC
N
113 103 M
113 57 L
282 57 L
282 103 L
cp
f
GR
GS
[1 0 0 1 152 69.36559] CT
/Helvetica 20 F
GS
[1 0 0 1 0 0] CT
0 5.5 moveto 
1 -1 scale
(intra-particle) t 
GR
GR
GS
0.208 0.165 0.525 RC
N
119 77.428 M
119 61.303 L
149 61.303 L
149 77.428 L
cp
f
GR
GS
2 setlinecap
10.0 ML
N
119 77.428 M
119 61.303 L
149 61.303 L
149 77.428 L
119 77.428 L
S
GR
GS
[1 0 0 1 152 90.63441] CT
/Helvetica 20 F
GS
[1 0 0 1 0 0] CT
0 5.5 moveto 
1 -1 scale
(homogeneous) t 
GR
GR
GS
0.973 0.98 0.051 RC
N
119 98.697 M
119 82.572 L
149 82.572 L
149 98.697 L
cp
f
GR
GS
2 setlinecap
10.0 ML
N
119 98.697 M
119 82.572 L
149 82.572 L
149 98.697 L
119 98.697 L
S
GR
GS
0.149 GC
2 setlinecap
10.0 ML
N
113 103 M
113 57 L
282 57 L
282 103 L
113 103 L
S
GR
%%Trailer
%%Pages: 1
%%EOF
